{
	"info": {
		"_postman_id": "df0afe3b-75e1-461d-8ac4-7999e3736699",
		"name": "categories",
		"schema": "https://schema.getpostman.com/json/collection/v2.1.0/collection.json"
	},
	"item": [
		{
			"name": "localhost:4000/categories/search",
			"request": {
				"method": "GET",
				"header": [],
				"url": {
					"raw": "localhost:4000/categories/search",
					"host": [
						"localhost"
					],
					"port": "4000",
					"path": [
						"categories",
						"search"
					]
				}
			},
			"response": []
		},
		{
			"name": "localhost:4000/products?id=11",
			"request": {
				"method": "GET",
				"header": [],
				"url": {
					"raw": "localhost:4000/categories?id=11",
					"host": [
						"localhost"
					],
					"port": "4000",
					"path": [
						"categories"
					],
					"query": [
						{
							"key": "id",
							"value": "11"
						}
					]
				}
			},
			"response": []
		},
		{
			"name": "localhost:4000/products",
			"request": {
				"method": "POST",
				"header": [],
				"body": {
					"mode": "raw",
					"raw": "{\r\n    \"label\": \"label\",\r\n    \"description\": \"description\",\r\n    \"price\": 111,\r\n    \"category_id\": 1,\r\n    \"thumbnail_url\": \"https://picsum.photos/256/256\",\r\n    \"visible_public\": 1,\r\n    \"visible_authenticated\": 0\r\n}",
					"options": {
						"raw": {
							"language": "json"
						}
					}
				},
				"url": {
					"raw": "localhost:4000/categories",
					"host": [
						"localhost"
					],
					"port": "4000",
					"path": [
						"categories"
					]
				}
			},
			"response": []
		},
		{
			"name": "localhost:4000/products?id=1",
			"request": {
				"method": "PUT",
				"header": [],
				"body": {
					"mode": "raw",
					"raw": "{\r\n    \"label\": \"2 Titre Unitaire\",\r\n    \"description\": \"2 Titre permettant de voyager sur l'ensemble du réseau.\\nCorrespondances illimitées dans l'heure suivant la première validation.\",\r\n    \"price\": 250,\r\n    \"category_id\": 1,\r\n    \"thumbnail_url\": \"https://picsum.photos/256/256\",\r\n    \"visible_public\": 1,\r\n    \"visible_authenticated\": 0\r\n}",
					"options": {
						"raw": {
							"language": "json"
						}
					}
				},
				"url": {
					"raw": "localhost:4000/categories?id=1",
					"host": [
						"localhost"
					],
					"port": "4000",
					"path": [
						"categories"
					],
					"query": [
						{
							"key": "id",
							"value": "1"
						}
					]
				}
			},
			"response": []
		},
		{
			"name": "localhost:4000/products?id=10",
			"request": {
				"method": "DELETE",
				"header": [],
				"url": {
					"raw": "localhost:4000/categories?id=10",
					"host": [
						"localhost"
					],
					"port": "4000",
					"path": [
						"categories"
					],
					"query": [
						{
							"key": "id",
							"value": "10"
						}
					]
				}
			},
			"response": []
		}
	]
}